Read an HMMER3 formatted profile HMM — read_hmm • padlocdev
…
#> $header$`STATS LOCAL FORWARD`
#> [1] "-6.4760  0.69676"
#> 
#> 
#> $model
#> $model$compo
#> # A tibble: 1 × 20
#>   A      C     D     E     F     G     H     I     K     L     M     N     P    
#>   <chr>  <chr> <chr> <chr> <chr> <chr> <chr> <chr> <chr> <chr> <chr> <chr> <chr>
#> 1 2.412… 4.43… 2.93… 2.67… 3.54… 2.87… 3.72… 2.88… 2.72… 2.41… 3.71… 3.16… 3.35…
#> # … with 7 more variables: Q <chr>, R <chr>, S <chr>, T <chr>, V <chr>,
#> #   W <chr>, Y <chr>
#> 
#> $model$match_emissions
#> # A tibble: 675 × 26
#>     node A     C     D     E     F     G     H     I     K     L     M     N    
#>    <int> <chr> <chr> <chr> <chr> <chr> <chr> <chr> <chr> <chr> <chr> <chr> <chr>
#>  1     1 2.52… 4.55… 2.43… 2.48… 3.81… 2.97… 3.66… 3.12… 2.52… 2.84… 3.20… 2.97…
#>  2     2 2.31… 4.52… 2.99… 2.31… 3.80… 3.33… 3.65… 3.17… 2.50… 2.84… 3.21… 2.98…
#>  3     3 2.57… 4.41… 3.22… 2.48… 3.54… 3.47… 3.72… 2.83… 2.61… 2.31… 2.77… 3.14…
#>  4     4 2.26… 4.62… 3.05… 2.35… 3.84… 3.42… 3.65… 3.22… 2.45… 2.87… 2.78… 2.76…
#>  5     5 2.62… 4.81… 2.94… 2.28… 4.07… 3.41… 3.61… 3.47… 2.07… 3.07… 3.90… 2.94…
#>  6     6 2.41… 4.75… 2.43… 2.40… 3.99… 3.39… 3.60… 3.07… 2.26… 3.01… 3.33… 2.72…
#>  7     7 2.44… 4.97… 2.45… 2.11… 4.26… 3.36… 3.20… 3.71… 2.36… 3.25… 3.46… 2.63…
#>  8     8 2.60… 4.91… 2.23… 2.20… 3.57… 3.37… 3.60… 3.62… 2.38… 3.19… 3.98… 2.87…
#>  9     9 2.83… 5.37… 1.80… 1.62… 4.67… 2.83… 3.70… 4.17… 2.35… 3.66… 4.47… 2.73…
#> 10    10 2.22… 4.39… 3.26… 2.76… 3.89… 3.25… 3.84… 3.25… 2.74… 2.62… 3.79… 3.15…
#> # … with 665 more rows, and 13 more variables: P <chr>, Q <chr>, R <chr>,
#> #   S <chr>, T <chr>, V <chr>, W <chr>, Y <chr>, MAP <chr>, CONS <chr>,
#> #   RF <chr>, MM <chr>, CS <chr>
#> 
#> $model$insert_emissions
#> # A tibble: 676 × 21
#>     node A     C     D     E     F     G     H     I     K     L     M     N    
#>    <dbl> <chr> <chr> <chr> <chr> <chr> <chr> <chr> <chr> <chr> <chr> <chr> <chr>
#>  1     1 2.68… 4.42… 2.77… 2.73… 3.46… 2.40… 3.72… 3.29… 2.67… 2.69… 4.24… 2.90…
#>  2     2 2.68… 4.42… 2.77… 2.73… 3.46… 2.40… 3.72… 3.29… 2.67… 2.69… 4.24… 2.90…
#>  3     3 2.68… 4.42… 2.77… 2.73… 3.46… 2.40… 3.72… 3.29… 2.67… 2.69… 4.24… 2.90…
#>  4     4 2.68… 4.42… 2.77… 2.73… 3.46… 2.40… 3.72… 3.29… 2.67… 2.69… 4.24… 2.90…
#>  5     5 2.68… 4.42… 2.77… 2.73… 3.46… 2.40… 3.72… 3.29… 2.67… 2.69… 4.24… 2.90…
#>  6     6 2.68… 4.42… 2.77… 2.73… 3.46… 2.40… 3.72… 3.29… 2.67… 2.69… 4.24… 2.90…
#>  7     7 2.68… 4.42… 2.77… 2.73… 3.46… 2.40… 3.72… 3.29… 2.67… 2.69… 4.24… 2.90…
#>  8     8 2.68… 4.42… 2.77… 2.73… 3.46… 2.40… 3.72… 3.29… 2.67… 2.69… 4.24… 2.90…
#>  9     9 2.68… 4.42… 2.77… 2.73… 3.46… 2.40… 3.72… 3.29… 2.67… 2.69… 4.24… 2.90…
#> 10    10 2.68… 4.42… 2.77… 2.73… 3.46… 2.40… 3.72… 3.29… 2.67… 2.69… 4.24… 2.90…
#> # … with 666 more rows, and 8 more variables: P <chr>, Q <chr>, R <chr>,
#> #   S <chr>, T <chr>, V <chr>, W <chr>, Y <chr>
#> 
#> $model$state_transitions
#> # A tibble: 676 × 8
#>     node m_m     m_i     m_d     i_m     i_i     d_m     d_d    
#>    <dbl> <chr>   <chr>   <chr>   <chr>   <chr>   <chr>   <chr>  
#>  1     1 0.03329 3.81496 4.53730 0.61958 0.77255 0.72688 0.66051
#>  2     2 0.03329 3.81496 4.53730 0.61958 0.77255 0.72688 0.66051
#>  3     3 0.03329 3.81496 4.53730 0.61958 0.77255 0.50614 0.92337
#>  4     4 0.02823 3.97731 4.69966 0.61958 0.77255 0.59972 0.79621
#>  5     5 0.02823 3.97731 4.69966 0.61958 0.77255 0.59972 0.79621
#>  6     6 0.02823 3.97731 4.69966 0.61958 0.77255 0.50570 0.92402
#>  7     7 0.02661 4.03540 4.75774 0.61958 0.77255 0.54409 0.86838
#>  8     8 0.02661 4.03540 4.75774 0.61958 0.77255 0.54409 0.86838
#>  9     9 0.02661 4.03540 4.75774 0.61958 0.77255 0.54409 0.86838
#> 10    10 0.02661 4.03540 4.75774 0.61958 0.77255 0.54409 0.86838
#> # … with 666 more rows
…
