Validating padloc-db data • padlocdev
…
Verify that HMM file names match their accession

Before trying to expand anything, lets see if there’s anything
missing. First, we’ll check that the HMM file names match their
accessions, as this may affect other stages of validation. To do this,
use verify_hmm_names().

hmm_name_verification <- verify_hmm_names(hmms)
hmm_name_verification
#> $names_match
#> # A tibble: 40 × 3
#>    file_name accession_field match
#>    <chr>     <chr>           <lgl>
#>  1 PDLC00150 PDLC00150       TRUE 
#>  2 PDLC00151 PDLC00151       TRUE 
#>  3 PDLC00174 PDLC00174       TRUE 
#>  4 PDLC00175 PDLC00175       TRUE 
#>  5 PDLC00195 PDLC00195       TRUE 
#>  6 PDLC00196 PDLC00196       TRUE 
#>  7 PDLC00199 PDLC00199       TRUE 
#>  8 PDLC00200 PDLC00200       TRUE 
#>  9 PDLC00202 PDLC00202       TRUE 
#> 10 PDLC00203 PDLC00203       TRUE 
#> # ℹ 30 more rows
…
#>   file.name NAME              ACC       hmm_files
#>   <chr>     <chr>             <chr>     <lgl>    
#> 1 PDLC04000 Extra_HMM         PDLC04000 TRUE     
#> 2 PDLC05000 Another_extra_HMM PDLC05000 TRUE     
#> 
#> $`hmm_meta without hmm_files`
#> # A tibble: 3 × 2
#>   hmm.name   hmm_meta
#>   <chr>      <lgl>   
#> 1 BrxA_00001 TRUE    
#> 2 BrxE_00001 TRUE    
#> 3 BrxP_00001 TRUE    
#> 
#> $`hmm_files with hmm_meta`
#> # A tibble: 40 × 3
#>    hmm.name    hmm_files hmm_meta
#>    <chr>       <lgl>     <lgl>   
#>  1 HamA1_00001 TRUE      TRUE    
#>  2 HamA1_00002 TRUE      TRUE    
#>  3 HamB1_00001 TRUE      TRUE    
#>  4 HamB1_00002 TRUE      TRUE    
#>  5 HamA2_00001 TRUE      TRUE    
#>  6 HamA2_00002 TRUE      TRUE    
#>  7 HamB2_00001 TRUE      TRUE    
#>  8 HamB2_00002 TRUE      TRUE    
#>  9 HamC2_00001 TRUE      TRUE    
#> 10 HamC2_00002 TRUE      TRUE    
#> # ℹ 30 more rows
…
#> 1 HamA2        TRUE             
#> 2 HamB2        TRUE             
#> 
#> $`sys_genes without hmm_meta_expanded`
#> # A tibble: 5 × 2
#>   protein.name sys_genes
#>   <chr>        <lgl>    
#> 1 GenA         TRUE     
#> 2 GenB         TRUE     
#> 3 GenC         TRUE     
#> 4 GenD         TRUE     
#> 5 GenE         TRUE     
#> 
#> $`hmm_meta_expanded with sys_genes`
#> # A tibble: 27 × 3
#>    protein.name hmm_meta_expanded sys_genes
#>    <chr>        <lgl>             <lgl>    
#>  1 HamA1        TRUE              TRUE     
#>  2 HamA         TRUE              TRUE     
#>  3 HamB1        TRUE              TRUE     
#>  4 HamB         TRUE              TRUE     
#>  5 HamC2        TRUE              TRUE     
#>  6 HamC         TRUE              TRUE     
#>  7 Drt1a        TRUE              TRUE     
#>  8 Drt1b        TRUE              TRUE     
#>  9 Drt2         TRUE              TRUE     
#> 10 Drt3a        TRUE              TRUE     
#> # ℹ 17 more rows
…
